<?xml version="1.0" encoding="UTF-8"?>
<svg width="104px" height="104px" viewBox="0 0 104 104" version="1.1" xmlns="http://www.w3.org/2000/svg" xmlns:xlink="http://www.w3.org/1999/xlink">
    <!-- Generator: Sketch 54.1 (76490) - https://sketchapp.com -->
    <title>ic_1</title>
    <desc>Created with Sketch.</desc>
    <defs>
        <linearGradient x1="-1.11022302e-14%" y1="50%" x2="100%" y2="50%" id="linearGradient-1">
            <stop stop-color="#41F9E7" offset="0%"></stop>
            <stop stop-color="#8E6FFF" offset="100%"></stop>
        </linearGradient>
        <circle id="path-2" cx="35" cy="35" r="35"></circle>
        <filter x="-40.7%" y="-32.1%" width="181.4%" height="181.4%" filterUnits="objectBoundingBox" id="filter-3">
            <feOffset dx="0" dy="6" in="SourceAlpha" result="shadowOffsetOuter1"></feOffset>
            <feGaussianBlur stdDeviation="8.5" in="shadowOffsetOuter1" result="shadowBlurOuter1"></feGaussianBlur>
            <feColorMatrix values="0 0 0 0 0.172661871   0 0 0 0 0   0 0 0 0 1  0 0 0 0.299524694 0" type="matrix" in="shadowBlurOuter1"></feColorMatrix>
        </filter>
    </defs>
    <g id="Page-1" stroke="none" stroke-width="1" fill="none" fill-rule="evenodd">
        <g id="Главная" transform="translate(-190.000000, -353.000000)">
            <g id="ic_1" transform="translate(207.000000, 364.000000)">
                <g id="Oval">
                    <use fill="black" fill-opacity="1" filter="url(#filter-3)" xlink:href="#path-2"></use>
                    <use fill="url(#linearGradient-1)" fill-rule="evenodd" xlink:href="#path-2"></use>
                </g>
                <g id="Group-17" transform="translate(17.000000, 16.000000)" stroke="#FFFFFF" stroke-linejoin="round" stroke-width="2">
                    <path d="M17.8925891,0.163636364 C10.1643709,0.163636364 9.73498909,4.83774545 10.2756436,10.5178909 C10.8176073,16.2098182 14.3940436,20.8688727 17.8925891,20.8688727 C21.3924436,20.8688727 24.9682255,16.2098182 25.5095345,10.5178909 C26.04888,4.83774545 25.6208073,0.163636364 17.8925891,0.163636364 Z" id="Stroke-1"></path>
                    <path d="M20.1797018,4.75186909 C20.1797018,4.75186909 19.3602109,8.63790545 13.4477018,8.63790545" id="Stroke-3" stroke-linecap="round"></path>
                    <path d="M19.5053236,6.32624727 C19.5053236,6.32624727 22.1608145,8.14522909 25.4283055,8.99810182" id="Stroke-5" stroke-linecap="round"></path>
                    <path d="M16.6755927,29.7460145 L15.6014836,38.26296" id="Stroke-7" stroke-linecap="round"></path>
                    <path d="M19.1096509,29.7460145 L20.18376,38.26296" id="Stroke-9" stroke-linecap="round"></path>
                    <path d="M0.163636364,38.2627636 L0.823418182,29.4741818 C1.47534545,24.6220364 4.392,24.0813818 4.392,24.0813818 C4.392,24.0813818 7.56850909,23.184 10.9413818,22.6204364 L13.8940364,28.5931636" id="Stroke-11" stroke-linecap="round"></path>
                    <path d="M35.6235055,38.2627636 L34.96176,29.4741818 C34.3104873,24.6220364 31.3931782,24.0813818 31.3931782,24.0813818 C31.3931782,24.0813818 28.2173236,23.184 24.8437964,22.6204364 L21.8917964,28.5931636" id="Stroke-13" stroke-linecap="round"></path>
                    <polygon id="Stroke-15" stroke-linecap="round" points="17.9028655 30.9464509 14.8121018 27.4570691 17.8832291 23.9689964 17.9028655 23.9689964 20.9726836 27.4570691"></polygon>
                </g>
            </g>
        </g>
    </g>
</svg>